{
  "landpreparation": [
    {
      "fieldame": "Crop Area",
      "explanation": "",
      "exampledata": "0",
      "submenu": "none"
    },
    {
      "fieldame": "Clearing bush",
      "explanation": "Expenses for bush clearing on farm fence or within the farm",
      "exampledata": "0",
      "submenu": "none"
    },
    {
      "fieldame": "Fencing",
      "explanation": "expenses for building fence, can be temp or paramanent",
      "exampledata": "",
      "submenu": "none"
    },
    {
      "fieldame": "Ploughing",
      "explanation": "expenses of ploughing could be by ",
      "exampledata": "",
      "submenu": "none"
    },
    {
      "fieldame": "Land Leveling",
      "explanation": "Land levelling expenses",
      "exampledata": "",
      "submenu": "none"
    },
    {
      "fieldame": "Marking or pit digging",
      "explanation": "Pit digging for Horticulture plants, ",
      "exampledata": "",
      "submenu": "none"
    },
    {
      "fieldame": "Bed Preparation",
      "explanation": "for Vegetable crop for Nursary",
      "exampledata": "",
      "submenu": "none"
    }
  ],
  "seedssowing": [
    {
      "fieldame": "Cost of seeds",
      "explanation": "expenses for Seeds",
      "exampledata": "0",
      "submenu": "none"
    },
    {
      "fieldame": "Transplantation/sowing",
      "explanation": "Labour+Machine if used",
      "exampledata": "0",
      "submenu": "none"
    }
  ],
  "fertilizers": [
    {
      "fieldame": "Cost of Fertilizer",
      "explanation": "purchase cost of fertilizer",
      "exampledata": "0",
      "submenu": "1st Fertilizer Dose"
    },
    {
      "fieldame": "Cost of Logistic",
      "explanation": "Expenses from shop to home and home to farm",
      "exampledata": "0",
      "submenu": "1st Fertilizer Dose"
    },
    {
      "fieldame": "Applying Cost",
      "explanation": "Labour other expenses like irrigation",
      "exampledata": "0",
      "submenu": "1st Fertilizer Dose"
    },
    {
      "fieldame": "Cost of Fertilizer",
      "explanation": "purchase cost of fertilizer",
      "exampledata": "0",
      "submenu": "2nd Fertilizer Dose"
    },
    {
      "fieldame": "Cost of Logistic",
      "explanation": "Expenses from shop to home and home to farm",
      "exampledata": "0",
      "submenu": "2nd Fertilizer Dose"
    },
    {
      "fieldame": "Applying Cost",
      "explanation": "Labour other expenses like irrigation",
      "exampledata": "0",
      "submenu": "2nd Fertilizer Dose"
    },
    {
      "fieldame": "Cost of Fertilizer",
      "explanation": "purchase cost of fertilizer",
      "exampledata": "0",
      "submenu": "3rd Fertilizer Dose"
    },
    {
      "fieldame": "Cost of Logistic",
      "explanation": "Expenses from shop to home and home to farm",
      "exampledata": "0",
      "submenu": "3rd Fertilizer Dose"
    },
    {
      "fieldame": "Applying Cost",
      "explanation": "Labour other expenses like irrigation",
      "exampledata": "0",
      "submenu": "3rd Fertilizer Dose"
    }
  ],
  "pesticides": [
    {
      "fieldame": "Cost of Pesticides",
      "explanation": "purchase cost of Pesticides",
      "exampledata": "0",
      "submenu": " 1st Pesticides Dose"
    },
    {
      "fieldame": "Cost of Logistic",
      "explanation": "Expenses from shop to home and home to farm",
      "exampledata": "0",
      "submenu": " 1st Pesticides Dose"
    },
    {
      "fieldame": "Applying Cost",
      "explanation": "Labour other expenses like irrigation",
      "exampledata": "0",
      "submenu": " 1st Pesticides Dose"
    },
    {
      "fieldame": "Cost of Pesticides",
      "explanation": "purchase cost of Pesticides",
      "exampledata": "0",
      "submenu": " 2nd Pesticides Dose"
    },
    {
      "fieldame": "Cost of Logistic",
      "explanation": "Expenses from shop to home and home to farm",
      "exampledata": "0",
      "submenu": " 2nd Pesticides Dose"
    },
    {
      "fieldame": "Applying Cost",
      "explanation": "Labour other expenses like irrigation",
      "exampledata": "0",
      "submenu": " 2nd Pesticides Dose"
    },
    {
      "fieldame": "Cost of Pesticides",
      "explanation": "purchase cost of Pesticides",
      "exampledata": "0",
      "submenu": " 3rd Pesticides Dose"
    },
    {
      "fieldame": "Cost of Logistic",
      "explanation": "Expenses from shop to home and home to farm",
      "exampledata": "0",
      "submenu": " 3rd Pesticides Dose"
    },
    {
      "fieldame": "Applying Cost",
      "explanation": "Labour other expenses like irrigation",
      "exampledata": "0",
      "submenu": " 3rd Pesticides Dose"
    }
  ],
  "weeding": [
    {
      "fieldame": "Weeding Labour Cost",
      "explanation": "Labour expenses for manual weed removal",
      "exampledata": "0",
      "submenu": " 1st weeding/weedicide spray"
    },
    {
      "fieldame": "Weeding Labour Cost",
      "explanation": "Labour expenses for manual weed removal",
      "exampledata": "0",
      "submenu": " 1st weeding/weedicide spray"
    },
    {
      "fieldame": "Weeding Labour Cost",
      "explanation": "Labour expenses for manual weed removal",
      "exampledata": "0",
      "submenu": " 1st weeding/weedicide spray"
    },
    {
      "fieldame": "Weeding Labour Cost",
      "explanation": "Labour expenses for manual weed removal",
      "exampledata": "0",
      "submenu": " 2nd weeding/weedicide spray"
    },
    {
      "fieldame": "Weeding Labour Cost",
      "explanation": "Labour expenses for manual weed removal",
      "exampledata": "0",
      "submenu": " 2nd weeding/weedicide spray"
    },
    {
      "fieldame": "Weeding Labour Cost",
      "explanation": "Labour expenses for manual weed removal",
      "exampledata": "0",
      "submenu": " 2nd weeding/weedicide spray"
    },
    {
      "fieldame": "Weeding Labour Cost",
      "explanation": "Labour expenses for manual weed removal",
      "exampledata": "0",
      "submenu": " 3rd weeding/weedicide spray"
    },
    {
      "fieldame": "Weeding Labour Cost",
      "explanation": "Labour expenses for manual weed removal",
      "exampledata": "0",
      "submenu": " 3rd weeding/weedicide spray"
    },
    {
      "fieldame": "Weeding Labour Cost",
      "explanation": "Labour expenses for manual weed removal",
      "exampledata": "0",
      "submenu": " 3rd weeding/weedicide spray"
    }
  ],
  "irrigation": [
    {
      "fieldame": "Cost of water  including Transportation",
      "explanation": "",
      "exampledata": "0",
      "submenu": " 1st Irrigation"
    },
    {
      "fieldame": "Electricity Cost/Diesel cost & Genset Rent",
      "explanation": "",
      "exampledata": "0",
      "submenu": " 1st Irrigation"
    },
    {
      "fieldame": "Applying Cost",
      "explanation": "Manpower cost",
      "exampledata": "0",
      "submenu": " 1st Irrigation"
    },
    {
      "fieldame": "Cost of water  including Transportation",
      "explanation": "",
      "exampledata": "0",
      "submenu": " 2nd Irrigation"
    },
    {
      "fieldame": "Electricity Cost/Diesel cost & Genset Rent",
      "explanation": "",
      "exampledata": "0",
      "submenu": " 2nd Irrigation"
    },
    {
      "fieldame": "Applying Cost",
      "explanation": "Manpower cost",
      "exampledata": "0",
      "submenu": " 2nd Irrigation"
    },
    {
      "fieldame": "Cost of water  including Transportation",
      "explanation": "",
      "exampledata": "0",
      "submenu": " 3rd Irrigation"
    },
    {
      "fieldame": "Electricity Cost/Diesel cost & Genset Rent",
      "explanation": "",
      "exampledata": "0",
      "submenu": " 3rd Irrigation"
    },
    {
      "fieldame": "Applying Cost",
      "explanation": "Manpower cost",
      "exampledata": "0",
      "submenu": " 3rd Irrigation"
    }
  ],
  "harvesting": [
    {
      "fieldame": "Harvesting Equipment expenses",
      "explanation": "Harvester charges if used",
      "exampledata": "0",
      "submenu": " 1st Picking"
    },
    {
      "fieldame": "Labour cost",
      "explanation": "Labour expenses",
      "exampledata": "0",
      "submenu": " 1st Picking"
    },
    {
      "fieldame": "Cleaning/sorting/grading",
      "explanation": "expenses Cleaning/sorting/grading",
      "exampledata": "0",
      "submenu": " 1st Picking"
    },
    {
      "fieldame": "Harvesting Equipment expenses",
      "explanation": "Harvester charges if used",
      "exampledata": "0",
      "submenu": " 2nd Picking"
    },
    {
      "fieldame": "Labour cost",
      "explanation": "Labour expenses",
      "exampledata": "0",
      "submenu": " 2nd Picking"
    },
    {
      "fieldame": "Cleaning/sorting/grading",
      "explanation": "expenses Cleaning/sorting/grading",
      "exampledata": "0",
      "submenu": " 2nd Picking"
    },
    {
      "fieldame": "Harvesting Equipment expenses",
      "explanation": "Harvester charges if used",
      "exampledata": "0",
      "submenu": " 3rd Picking"
    },
    {
      "fieldame": "Labour cost",
      "explanation": "Labour expenses",
      "exampledata": "0",
      "submenu": " 3rd Picking"
    },
    {
      "fieldame": "Cleaning/sorting/grading",
      "explanation": "expenses Cleaning/sorting/grading",
      "exampledata": "0",
      "submenu": " 3rd Picking"
    }
  ],
  "storage": [
    {
      "fieldame": "Cost of Storage",
      "explanation": "",
      "exampledata": "0",
      "submenu": " 1st Storage Event"
    },
    {
      "fieldame": "Logistic cost taking to godowun/Home",
      "explanation": "Expenses of taking to godowun/Home",
      "exampledata": "0",
      "submenu": "1st Storage Event"
    },
    {
      "fieldame": "Logistic cost taking from  godowun",
      "explanation": "Expenses of taking from  godowun",
      "exampledata": "0",
      "submenu": " 1st Storage Event"
    },
    {
      "fieldame": "Cost of Storage",
      "explanation": "",
      "exampledata": "0",
      "submenu": " 2nd Storage Event"
    },
    {
      "fieldame": "Logistic cost taking to godowun/Home",
      "explanation": "Expenses of taking to godowun/Home",
      "exampledata": "0",
      "submenu": "2nd Storage Event"
    },
    {
      "fieldame": "Logistic cost taking from  godowun",
      "explanation": "Expenses of taking from  godowun",
      "exampledata": "0",
      "submenu": " 2nd Storage Event"
    },
    {
      "fieldame": "Cost of Storage",
      "explanation": "",
      "exampledata": "0",
      "submenu": " 3rd Storage Event"
    },
    {
      "fieldame": "Logistic cost taking to godowun/Home",
      "explanation": "Expenses of taking to godowun/Home",
      "exampledata": "0",
      "submenu": "3rd Storage Event"
    },
    {
      "fieldame": "Logistic cost taking from  godowun",
      "explanation": "Expenses of taking from  godowun",
      "exampledata": "0",
      "submenu": " 3rd Storage Event"
    }
  ],
  "processing": [
    {
      "fieldame": "Cost of other raw materials",
      "explanation": "cost of raw materials",
      "exampledata": "0",
      "submenu": " 1st Batch Processing"
    },
    {
      "fieldame": "Cost of processing",
      "explanation": "Expenses excluding raw materials like mill or equipment charges",
      "exampledata": "0",
      "submenu": "1st Batch Processing"
    },
    {
      "fieldame": "Labour cost",
      "explanation": "expenses on labour",
      "exampledata": "0",
      "submenu": " 1st Batch Processing"
    },
    {
      "fieldame": "Packaging cost",
      "explanation": "cost of packaging including machine charges, electricity and packaging Material",
      "exampledata": "0",
      "submenu": " 1st Batch Processing"
    },
    {
      "fieldame": "Cost of other raw materials",
      "explanation": "cost of raw materials",
      "exampledata": "0",
      "submenu": " 2nd Batch Processing"
    },
    {
      "fieldame": "Cost of processing",
      "explanation": "Expenses excluding raw materials like mill or equipment charges",
      "exampledata": "0",
      "submenu": "2nd Batch Processing"
    },
    {
      "fieldame": "Labour cost",
      "explanation": "expenses on labour",
      "exampledata": "0",
      "submenu": " 2nd Batch Processing"
    },
    {
      "fieldame": "Packaging cost",
      "explanation": "cost of packaging including machine charges, electricity and packaging Material",
      "exampledata": "0",
      "submenu": " 2nd Batch Processing"
    },
    {
      "fieldame": "Cost of other raw materials",
      "explanation": "cost of raw materials",
      "exampledata": "0",
      "submenu": " 3rd Batch Processing"
    },
    {
      "fieldame": "Cost of processing",
      "explanation": "Expenses excluding raw materials like mill or equipment charges",
      "exampledata": "0",
      "submenu": "3rd Batch Processing"
    },
    {
      "fieldame": "Labour cost",
      "explanation": "expenses on labour",
      "exampledata": "0",
      "submenu": " 3rd Batch Processing"
    },
    {
      "fieldame": "Packaging cost",
      "explanation": "cost of packaging including machine charges, electricity and packaging Material",
      "exampledata": "0",
      "submenu": " 3rd Batch Processing"
    }
  ],
  "selling": [
    {
      "fieldame": "Sold Qty",
      "explanation": "Number of Units/qty Sold in Market or to customers",
      "exampledata": "0",
      "submenu": " 1st Sale"
    },
    {
      "fieldame": "Per Unit Rate",
      "explanation": "",
      "exampledata": "0",
      "submenu": "1st Sale"
    },
    {
      "fieldame": "Revenue from Sale",
      "explanation": "",
      "exampledata": "0",
      "submenu": " 1st Sale"
    },
    {
      "fieldame": "Taxes",
      "explanation": "taxes by Mandi and Govt",
      "exampledata": "0",
      "submenu": " 1st Sale"
    },
    {
      "fieldame": "Transport  cost",
      "explanation": "vehicle rent",
      "exampledata": "0",
      "submenu": "1st Sale"
    },
    {
      "fieldame": "labour & Other cost",
      "explanation": "Other cost like hamali",
      "exampledata": "0",
      "submenu": " 1st Sale"
    },
    {
      "fieldame": "Sold Qty",
      "explanation": "Number of Units/qty Sold in Market or to customers",
      "exampledata": "0",
      "submenu": " 2nd Sale"
    },
    {
      "fieldame": "Per Unit Rate",
      "explanation": "",
      "exampledata": "0",
      "submenu": "2nd Sale"
    },
    {
      "fieldame": "Revenue from Sale",
      "explanation": "",
      "exampledata": "0",
      "submenu": " 2nd Sale"
    },
    {
      "fieldame": "Taxes",
      "explanation": "taxes by Mandi and Govt",
      "exampledata": "0",
      "submenu": " 2nd Sale"
    },
    {
      "fieldame": "Transport  cost",
      "explanation": "vehicle rent",
      "exampledata": "0",
      "submenu": "2nd Sale"
    },
    {
      "fieldame": "labour & Other cost",
      "explanation": "Other cost like hamali",
      "exampledata": "0",
      "submenu": " 2nd Sale"
    },
    {
      "fieldame": "Sold Qty",
      "explanation": "Number of Units/qty Sold in Market or to customers",
      "exampledata": "0",
      "submenu": " 3rd Sale"
    },
    {
      "fieldame": "Per Unit Rate",
      "explanation": "",
      "exampledata": "0",
      "submenu": "3rd Sale"
    },
    {
      "fieldame": "Revenue from Sale",
      "explanation": "",
      "exampledata": "0",
      "submenu": " 3rd Sale"
    },
    {
      "fieldame": "Taxes",
      "explanation": "taxes by Mandi and Govt",
      "exampledata": "0",
      "submenu": " 3rd Sale"
    },
    {
      "fieldame": "Transport  cost",
      "explanation": "vehicle rent",
      "exampledata": "0",
      "submenu": "3rd Sale"
    },
    {
      "fieldame": "labour & Other cost",
      "explanation": "Other cost like hamali",
      "exampledata": "0",
      "submenu": " 3rd Sale"
    }
  ],
  "others": [
    {
      "fieldame": "Labour1",
      "explanation": "Your employee for the year, please divide the cost approximately for this crop as he may be sharing for other crops also",
      "exampledata": "0",
      "submenu": "none"
    },
    {
      "fieldame": "Labour2",
      "explanation": "Your employee for the year, please divide the cost approximately for this crop as he may be sharing for other crops also",
      "exampledata": "0",
      "submenu": "none"
    },
    {
      "fieldame": "Transport expenses",
      "explanation": "if you have provided vehicles for Labour for transportation ",
      "exampledata": "0",
      "submenu": "none"
    },
    {
      "fieldame": "Electricity Bill",
      "explanation": "",
      "exampledata": "0",
      "submenu": "none"
    },
    {
      "fieldame": "Cost of your work",
      "explanation": "vehicle rent",
      "exampledata": "0",
      "submenu": "none"
    },
    {
      "fieldame": "Your Transport expenses",
      "explanation": "",
      "exampledata": "0",
      "submenu": "none"
    },
    {
      "fieldame": "Rent of Land Rent amount if leased/ if own equivalent amount",
      "explanation": "",
      "exampledata": "0",
      "submenu": "none"
    },
    {
      "fieldame": "Other",
      "explanation": "Miscelinious, expences",
      "exampledata": "0",
      "submenu": "none"
    },
    {
      "fieldame": "Interest",
      "explanation": "Interest Paid on Loan for this crop",
      "exampledata": "0",
      "submenu": "none"
    }
  ]
}